cos_test.vcd
$date
	Wed Feb  5 19:14:38 2025
$end
$version
	Icarus Verilog
$end
$timescale
	1ps
$end
$scope module cosTop_tb $end
$var wire 18 ! rBus [17:0] $end
$var wire 1 " done $end
$var reg 1 # clk $end
$var reg 1 $ rst $end
$var reg 1 % start $end
$var reg 16 & xBus [15:0] $end
$scope module dut $end
$var wire 1 # clk $end
$var wire 1 $ rst $end
$var wire 1 % start $end
$var wire 16 ' xBus [15:0] $end
$var wire 1 ( sub $end
$var wire 1 ) selXorI $end
$var wire 18 * rBus [17:0] $end
$var wire 1 + ldX $end
$var wire 1 , ldT $end
$var wire 1 - ldCos $end
$var wire 1 . initT1 $end
$var wire 1 / initCos1 $end
$var wire 1 0 init0 $end
$var wire 1 " done $end
$var wire 1 1 cntUp $end
$var wire 1 2 cnt8 $end
$scope module cosControl $end
$var wire 1 # clk $end
$var wire 1 $ rst $end
$var wire 1 % start $end
$var wire 1 2 cnt8 $end
$var parameter 3 3 COS $end
$var parameter 3 4 DONE $end
$var parameter 3 5 IDLE $end
$var parameter 3 6 INIT $end
$var parameter 3 7 ITERATE1 $end
$var parameter 3 8 ITERATE2 $end
$var reg 1 1 cntUp $end
$var reg 1 " done $end
$var reg 1 0 init0 $end
$var reg 1 / initCos1 $end
$var reg 1 . initT1 $end
$var reg 1 - ldCos $end
$var reg 1 , ldT $end
$var reg 1 + ldX $end
$var reg 3 9 next [2:0] $end
$var reg 1 ) selXorI $end
$var reg 1 : sign $end
$var reg 3 ; state [2:0] $end
$var reg 1 ( sub $end
$upscope $end
$scope module cosDataPath $end
$var wire 1 # clk $end
$var wire 1 1 cntUp $end
$var wire 1 0 init0 $end
$var wire 1 / initCos1 $end
$var wire 1 . initT1 $end
$var wire 1 - ldCos $end
$var wire 1 , ldT $end
$var wire 1 + ldX $end
$var wire 18 < rBus [17:0] $end
$var wire 1 $ rst $end
$var wire 18 = sCosOut [17:0] $end
$var wire 1 ) selXorI $end
$var wire 1 ( sub $end
$var wire 16 > xBus [15:0] $end
$var wire 16 ? xOut [15:0] $end
$var wire 18 @ termExtended [17:0] $end
$var wire 16 A tOut [15:0] $end
$var wire 16 B muxOut [15:0] $end
$var wire 32 C multResult [31:0] $end
$var wire 16 D multOut [15:0] $end
$var wire 16 E lutOut [15:0] $end
$var wire 19 F fullAdd [18:0] $end
$var wire 18 G cosOut [17:0] $end
$var wire 3 H cntOut [2:0] $end
$var wire 1 2 cnt8 $end
$var wire 18 I addOut [17:0] $end
$scope module cntr $end
$var wire 1 # clk $end
$var wire 1 1 cntUp $end
$var wire 1 0 init0 $end
$var wire 1 $ rst $end
$var parameter 32 J m $end
$var reg 3 K cnt [2:0] $end
$upscope $end
$scope module cosReg $end
$var wire 1 # clk $end
$var wire 18 L in [17:0] $end
$var wire 1 / init $end
$var wire 1 - load $end
$var wire 1 $ rst $end
$var parameter 18 M INIT_VALUE $end
$var parameter 32 N n $end
$var reg 18 O out [17:0] $end
$upscope $end
$scope module lut $end
$var wire 3 P addr [2:0] $end
$var wire 16 Q out [15:0] $end
$var reg 16 R dataOut [15:0] $end
$upscope $end
$scope module tReg $end
$var wire 1 # clk $end
$var wire 16 S in [15:0] $end
$var wire 1 . init $end
$var wire 1 , load $end
$var wire 1 $ rst $end
$var parameter 16 T INIT_VALUE $end
$var parameter 32 U n $end
$var reg 16 V out [15:0] $end
$upscope $end
$scope module xReg $end
$var wire 1 # clk $end
$var wire 16 W in [15:0] $end
$var wire 1 X init $end
$var wire 1 + load $end
$var wire 1 $ rst $end
$var parameter 16 Y INIT_VALUE $end
$var parameter 32 Z n $end
$var reg 16 [ out [15:0] $end
$upscope $end
$upscope $end
$upscope $end
$upscope $end
$enddefinitions $end
$comment Show the parameter values. $end
$dumpall
b10000 Z
b0 Y
b10000 U
b1111111111111111 T
b10010 N
b10000000000000000 M
b11 J
b11 8
b10 7
b1 6
b0 5
b101 4
b100 3
$end
#0
$dumpvars
b0 [
0X
b1000000000000 W
b0 V
b0 S
b1111111111111111 R
b1111111111111111 Q
b0 P
b0 O
b0 L
b0 K
b0 I
b0 H
b0 G
b0 F
b1111111111111111 E
b0 D
b0 C
b1111111111111111 B
b0 A
b0 @
b0 ?
b1000000000000 >
b0 =
b0 <
b0 ;
1:
b0 9
02
01
00
0/
0.
0-
0,
0+
b0 *
0)
0(
b1000000000000 '
b1000000000000 &
0%
1$
0#
0"
b0 !
$end
#5000
1#
#10000
0#
0$
#15000
1#
#20000
b1 9
0#
1%
#25000
b10 9
1+
10
1/
1.
b1 ;
1#
#30000
10
1/
1.
1+
b10 9
0#
0%
#35000
b1111111111111111 I
b1111111111111111 L
b1000000000000 B
b11 9
1,
1)
00
0/
0.
0+
b111111111111111111 @
b111111111111 D
b111111111111 S
b10 ;
b1000000000000 ?
b1000000000000 [
b1111111111111111000000000000 C
b1111111111111111 A
b1111111111111111 V
b10000000000000000 !
b10000000000000000 *
b10000000000000000 <
b1111111111111111 F
b10000000000000000 =
b10000000000000000 G
b10000000000000000 O
1#
#40000
0#
#45000
b10000111111111111 I
b10000111111111111 L
b1111111111111111 B
b10000111111111111 F
b111111111111 @
b111111111110 D
b111111111110 S
b100 9
0)
1,
b1111111111101111000000000001 C
b111111111111 A
b111111111111 V
b11 ;
1#
#50000
0#
#55000
b1111000000000010 I
b1111000000000010 L
b10 9
1(
11
1-
0,
b1111000000000010 F
b111111000000000010 @
b111111111101 D
b111111111101 S
b100 ;
b1111111111011111000000000010 C
b111111111110 A
b111111111110 V
1#
#60000
0#
#65000
b11111111 D
b11111111 S
b10000000000000000 I
b10000000000000000 L
b111111111110000000000000 C
b1000000000000 B
b111111111110 @
b1000000000000000 E
b1000000000000000 Q
b1000000000000000 R
b11 9
1,
1)
0(
01
0-
b1111000000000010 !
b1111000000000010 *
b1111000000000010 <
b10000000000000000 F
b1111000000000010 =
b1111000000000010 G
b1111000000000010 O
b1 H
b1 K
b1 P
0:
b10 ;
1#
#70000
0#
#75000
b1111000100000001 I
b1111000100000001 L
b1000000000000000 B
b100 9
0)
1,
b1111000100000001 F
b11111111 @
b1111111 D
b1111111 S
b11 ;
b11111111000000000000000 C
b11111111 A
b11111111 V
1#
#80000
0#
#85000
b1111000010000001 I
b1111000010000001 L
b1111000010000001 F
b1111111 @
b111111 D
b111111 S
b10 9
11
1-
0,
b1111111000000000000000 C
b1111111 A
b1111111 V
b100 ;
1#
#90000
0#
#95000
b111 D
b111 S
b1111000100000000 I
b1111000100000000 L
b1111111000000000000 C
b1000000000000 B
b11 9
1,
1)
01
0-
b10101010101011 E
b10101010101011 Q
b10101010101011 R
1:
b10 ;
b10 H
b10 K
b10 P
b1111000010000001 !
b1111000010000001 *
b1111000010000001 <
b1111000100000000 F
b1111000010000001 =
b1111000010000001 G
b1111000010000001 O
1#
#100000
0#
#105000
b1111000010001000 I
b1111000010001000 L
b10101010101011 B
b1111000010001000 F
b111 @
b1 D
b1 S
b100 9
0)
1,
b10010101010101101 C
b111 A
b111 V
b11 ;
1#
#110000
0#
#115000
b1111000010000000 I
b1111000010000000 L
b10 9
1(
11
1-
0,
b1111000010000000 F
b111111111111111111 @
b0 D
b0 S
b100 ;
b10101010101011 C
b1 A
b1 V
1#
#120000
0#
#125000
b1111000010000001 I
b1111000010000001 L
b1000000000000 C
b1000000000000 B
b1 @
b100000010001 E
b100000010001 Q
b100000010001 R
b11 9
1,
1)
0(
01
0-
b1111000010000000 !
b1111000010000000 *
b1111000010000000 <
b1111000010000001 F
b1111000010000000 =
b1111000010000000 G
b1111000010000000 O
b11 H
b11 K
b11 P
0:
b10 ;
1#
#130000
0#
#135000
b1111000010000000 I
b1111000010000000 L
b100000010001 B
b100 9
0)
1,
b1111000010000000 F
b0 @
b11 ;
b0 C
b0 A
b0 V
1#
#140000
0#
#145000
b10 9
11
1-
0,
b100 ;
1#
#150000
0#
#155000
b1000000000000 B
b11 9
1,
1)
01
0-
b101000 E
b101000 Q
b101000 R
1:
b10 ;
b100 H
b100 K
b100 P
1#
#160000
0#
#165000
b101000 B
b100 9
0)
1,
b11 ;
1#
#170000
0#
#175000
b10 9
1(
11
1-
0,
b100 ;
1#
#180000
0#
#185000
b1000000000000 B
b1 E
b1 Q
b1 R
b11 9
1,
1)
0(
01
0-
b101 H
b101 K
b101 P
0:
b10 ;
1#
#190000
0#
#195000
b1 B
b100 9
0)
1,
b11 ;
1#
#200000
0#
#205000
b10 9
11
1-
0,
b100 ;
1#
#210000
0#
#215000
b1000000000000 B
b11 9
1,
1)
01
0-
b0 E
b0 Q
b0 R
1:
b10 ;
b110 H
b110 K
b110 P
1#
#220000
0#
#225000
b0 B
b100 9
0)
1,
b11 ;
1#
#230000
0#
#235000
b10 9
1(
11
1-
0,
b100 ;
1#
#240000
0#
#245000
b1000000000000 B
b11 9
1,
1)
0(
01
0-
12
b111 H
b111 K
b111 P
0:
b10 ;
1#
#250000
0#
#255000
b0 B
b100 9
0)
1,
b11 ;
1#
#260000
0#
#265000
b101 9
11
1-
0,
b100 ;
1#
#270000
0#
#275000
b1111111111111111 B
b1111111111111111 E
b1111111111111111 Q
b1111111111111111 R
b0 9
1"
01
0-
1:
b101 ;
02
b0 H
b0 K
b0 P
1#
#280000
0#
#285000
0"
b0 ;
1#
