exp_test.vcd
$date
	Wed Feb  5 19:16:42 2025
$end
$version
	Icarus Verilog
$end
$timescale
	1ps
$end
$scope module expTop_tb $end
$var wire 18 ! rBus [17:0] $end
$var wire 1 " done $end
$var reg 1 # clk $end
$var reg 1 $ rst $end
$var reg 1 % start $end
$var reg 16 & xBus [15:0] $end
$scope module dut $end
$var wire 1 # clk $end
$var wire 1 $ rst $end
$var wire 1 % start $end
$var wire 16 ' xBus [15:0] $end
$var wire 1 ( selXorI $end
$var wire 18 ) rBus [17:0] $end
$var wire 1 * ldX $end
$var wire 1 + ldT $end
$var wire 1 , ldExp $end
$var wire 1 - initT1 $end
$var wire 1 . initExp1 $end
$var wire 1 / init0 $end
$var wire 1 " done $end
$var wire 1 0 cntUp $end
$var wire 1 1 cnt8 $end
$scope module expControl $end
$var wire 1 # clk $end
$var wire 1 $ rst $end
$var wire 1 % start $end
$var wire 1 1 cnt8 $end
$var parameter 3 2 DONE $end
$var parameter 3 3 EXP $end
$var parameter 3 4 IDLE $end
$var parameter 3 5 INIT $end
$var parameter 3 6 ITERATE1 $end
$var parameter 3 7 ITERATE2 $end
$var reg 1 0 cntUp $end
$var reg 1 " done $end
$var reg 1 / init0 $end
$var reg 1 . initExp1 $end
$var reg 1 - initT1 $end
$var reg 1 , ldExp $end
$var reg 1 + ldT $end
$var reg 1 * ldX $end
$var reg 3 8 next [2:0] $end
$var reg 1 ( selXorI $end
$var reg 3 9 state [2:0] $end
$upscope $end
$scope module expDataPath $end
$var wire 1 # clk $end
$var wire 1 0 cntUp $end
$var wire 1 / init0 $end
$var wire 1 . initExp1 $end
$var wire 1 - initT1 $end
$var wire 1 , ldExp $end
$var wire 1 + ldT $end
$var wire 1 * ldX $end
$var wire 18 : rBus [17:0] $end
$var wire 1 $ rst $end
$var wire 1 ( selXorI $end
$var wire 16 ; xBus [15:0] $end
$var wire 16 < xOut [15:0] $end
$var wire 16 = tOut [15:0] $end
$var wire 16 > muxOut [15:0] $end
$var wire 32 ? multResult [31:0] $end
$var wire 16 @ multOut [15:0] $end
$var wire 16 A lutOut [15:0] $end
$var wire 19 B fullAdd [18:0] $end
$var wire 18 C expOut [17:0] $end
$var wire 3 D cntOut [2:0] $end
$var wire 1 1 cnt8 $end
$var wire 18 E addOut [17:0] $end
$scope module cntr $end
$var wire 1 # clk $end
$var wire 1 0 cntUp $end
$var wire 1 / init0 $end
$var wire 1 $ rst $end
$var parameter 32 F m $end
$var reg 3 G cnt [2:0] $end
$upscope $end
$scope module eReg $end
$var wire 1 # clk $end
$var wire 18 H in [17:0] $end
$var wire 1 . init $end
$var wire 1 , load $end
$var wire 1 $ rst $end
$var parameter 18 I INIT_VALUE $end
$var parameter 32 J n $end
$var reg 18 K out [17:0] $end
$upscope $end
$scope module lut $end
$var wire 3 L addr [2:0] $end
$var wire 16 M out [15:0] $end
$var reg 16 N dataOut [15:0] $end
$upscope $end
$scope module tReg $end
$var wire 1 # clk $end
$var wire 16 O in [15:0] $end
$var wire 1 - init $end
$var wire 1 + load $end
$var wire 1 $ rst $end
$var parameter 16 P INIT_VALUE $end
$var parameter 32 Q n $end
$var reg 16 R out [15:0] $end
$upscope $end
$scope module xReg $end
$var wire 1 # clk $end
$var wire 16 S in [15:0] $end
$var wire 1 T init $end
$var wire 1 * load $end
$var wire 1 $ rst $end
$var parameter 16 U INIT_VALUE $end
$var parameter 32 V n $end
$var reg 16 W out [15:0] $end
$upscope $end
$upscope $end
$upscope $end
$upscope $end
$enddefinitions $end
$comment Show the parameter values. $end
$dumpall
b10000 V
b0 U
b10000 Q
b1111111111111111 P
b10010 J
b10000000000000000 I
b11 F
b11 7
b10 6
b1 5
b0 4
b100 3
b101 2
$end
#0
$dumpvars
b0 W
0T
b100000000000000 S
b0 R
b0 O
b1111111111111111 N
b1111111111111111 M
b0 L
b0 K
b0 H
b0 G
b0 E
b0 D
b0 C
b0 B
b1111111111111111 A
b0 @
b0 ?
b1111111111111111 >
b0 =
b0 <
b100000000000000 ;
b0 :
b0 9
b0 8
01
00
0/
0.
0-
0,
0+
0*
b0 )
0(
b100000000000000 '
b100000000000000 &
0%
1$
0#
0"
b0 !
$end
#5000
1#
#10000
0#
0$
#15000
1#
#20000
b1 8
0#
1%
#25000
b10 8
1*
1/
1.
1-
b1 9
1#
#30000
1/
1.
1-
1*
b10 8
0#
0%
#35000
b100000000000000 >
b11111111111111111 E
b11111111111111111 H
b11 8
1+
1(
0/
0.
0-
0*
b11111111111111 @
b11111111111111 O
b10 9
b100000000000000 <
b100000000000000 W
b111111111111111100000000000000 ?
b1111111111111111 =
b1111111111111111 R
b11111111111111111 B
b10000000000000000 !
b10000000000000000 )
b10000000000000000 :
b10000000000000000 C
b10000000000000000 K
1#
#40000
0#
#45000
b10011111111111111 E
b10011111111111111 H
b1111111111111111 >
b11111111111110 @
b11111111111110 O
b100 8
0(
1+
b10011111111111111 B
b111111111111101100000000000001 ?
b11111111111111 =
b11111111111111 R
b11 9
1#
#50000
0#
#55000
b10011111111111110 E
b10011111111111110 H
b10 8
10
1,
0+
b11111111111101 @
b11111111111101 O
b100 9
b10011111111111110 B
b111111111111011100000000000010 ?
b11111111111110 =
b11111111111110 R
1#
#60000
0#
#65000
b111111111111 @
b111111111111 O
b10111111111111100 E
b10111111111111100 H
b1111111111111000000000000000 ?
b100000000000000 >
b1000000000000000 A
b1000000000000000 M
b1000000000000000 N
b11 8
1+
1(
00
0,
b10111111111111100 B
b10011111111111110 !
b10011111111111110 )
b10011111111111110 :
b10011111111111110 C
b10011111111111110 K
b1 D
b1 G
b1 L
b10 9
1#
#70000
0#
#75000
b1000000000000000 >
b10100111111111101 E
b10100111111111101 H
b100 8
0(
1+
b11111111111 @
b11111111111 O
b11 9
b10100111111111101 B
b111111111111000000000000000 ?
b111111111111 =
b111111111111 R
1#
#80000
0#
#85000
b10100011111111101 E
b10100011111111101 H
b1111111111 @
b1111111111 O
b10 8
10
1,
0+
b10100011111111101 B
b11111111111000000000000000 ?
b11111111111 =
b11111111111 R
b100 9
1#
#90000
0#
#95000
b111111111 @
b111111111 O
b1111111111100000000000000 ?
b100000000000000 >
b10100111111111100 E
b10100111111111100 H
b11 8
1+
1(
00
0,
b101010101010101 A
b101010101010101 M
b101010101010101 N
b10 9
b10 D
b10 G
b10 L
b10100111111111100 B
b10100011111111101 !
b10100011111111101 )
b10100011111111101 :
b10100011111111101 C
b10100011111111101 K
1#
#100000
0#
#105000
b10100100111111100 E
b10100100111111100 H
b101010101010101 >
b10101010 @
b10101010 O
b100 8
0(
1+
b10100100111111100 B
b101010100101010010101011 ?
b111111111 =
b111111111 R
b11 9
1#
#110000
0#
#115000
b10100100010100111 E
b10100100010100111 H
b10 8
10
1,
0+
b111000 @
b111000 O
b100 9
b10100100010100111 B
b1110001010101001110010 ?
b10101010 =
b10101010 R
1#
#120000
0#
#125000
b101010 @
b101010 O
b10100100101010001 E
b10100100101010001 H
b1010101000000000000000 ?
b100000000000000 >
b100000000000000 A
b100000000000000 M
b100000000000000 N
b11 8
1+
1(
00
0,
b10100100101010001 B
b10100100010100111 !
b10100100010100111 )
b10100100010100111 :
b10100100010100111 C
b10100100010100111 K
b11 D
b11 G
b11 L
b10 9
1#
#130000
0#
#135000
b10100100011010001 E
b10100100011010001 H
b100 8
0(
1+
b1010 @
b1010 O
b11 9
b10100100011010001 B
b10101000000000000000 ?
b101010 =
b101010 R
1#
#140000
0#
#145000
b10100100010110001 E
b10100100010110001 H
b10 @
b10 O
b10 8
10
1,
0+
b10100100010110001 B
b101000000000000000 ?
b1010 =
b1010 R
b100 9
1#
#150000
0#
#155000
b10100100010111011 E
b10100100010111011 H
b11 8
1+
1(
00
0,
b11001100110011 A
b11001100110011 M
b11001100110011 N
b10 9
b100 D
b100 G
b100 L
b10100100010111011 B
b10100100010110001 !
b10100100010110001 )
b10100100010110001 :
b10100100010110001 C
b10100100010110001 K
1#
#160000
0#
#165000
b10100100010110011 E
b10100100010110011 H
b11001100110011 >
b0 @
b0 O
b100 8
0(
1+
b10100100010110011 B
b110011001100110 ?
b10 =
b10 R
b11 9
1#
#170000
0#
#175000
b10100100010110001 E
b10100100010110001 H
b10 8
10
1,
0+
b100 9
b10100100010110001 B
b0 ?
b0 =
b0 R
1#
#180000
0#
#185000
b100000000000000 >
b10101010101011 A
b10101010101011 M
b10101010101011 N
b11 8
1+
1(
00
0,
b101 D
b101 G
b101 L
b10 9
1#
#190000
0#
#195000
b10101010101011 >
b100 8
0(
1+
b11 9
1#
#200000
0#
#205000
b10 8
10
1,
0+
b100 9
1#
#210000
0#
#215000
b100000000000000 >
b11 8
1+
1(
00
0,
b10010010010010 A
b10010010010010 M
b10010010010010 N
b10 9
b110 D
b110 G
b110 L
1#
#220000
0#
#225000
b10010010010010 >
b100 8
0(
1+
b11 9
1#
#230000
0#
#235000
b10 8
10
1,
0+
b100 9
1#
#240000
0#
#245000
b100000000000000 >
b10000000000000 A
b10000000000000 M
b10000000000000 N
b11 8
1+
1(
00
0,
11
b111 D
b111 G
b111 L
b10 9
1#
#250000
0#
#255000
b10000000000000 >
b100 8
0(
1+
b11 9
1#
#260000
0#
#265000
b101 8
10
1,
0+
b100 9
1#
#270000
0#
#275000
b1111111111111111 >
b1111111111111111 A
b1111111111111111 M
b1111111111111111 N
b0 8
1"
00
0,
b101 9
01
b0 D
b0 G
b0 L
1#
#280000
0#
#285000
0"
b0 9
1#
