exp_test.vcd
$date
	Wed Feb  5 11:18:11 2025
$end
$version
	Icarus Verilog
$end
$timescale
	1ps
$end
$scope module exp_tb $end
$var wire 18 ! rBus [17:0] $end
$var wire 1 " done $end
$var reg 1 # clk $end
$var reg 1 $ rst $end
$var reg 1 % start $end
$var reg 16 & xBus [15:0] $end
$scope function is_within_margin $end
$var reg 18 ' actual [17:0] $end
$var reg 18 ( expected [17:0] $end
$var reg 18 ) margin [17:0] $end
$upscope $end
$scope module dut $end
$var wire 1 # clk $end
$var wire 1 $ rst $end
$var wire 1 % start $end
$var wire 16 * xBus [15:0] $end
$var wire 1 + selXorI $end
$var wire 18 , rBus [17:0] $end
$var wire 1 - ldX $end
$var wire 1 . ldT $end
$var wire 1 / ldExp $end
$var wire 1 0 initT1 $end
$var wire 1 1 initExp1 $end
$var wire 1 2 init0 $end
$var wire 1 " done $end
$var wire 1 3 cntUp $end
$var wire 1 4 cnt8 $end
$scope module expControl $end
$var wire 1 # clk $end
$var wire 1 $ rst $end
$var wire 1 % start $end
$var wire 1 4 cnt8 $end
$var parameter 3 5 ACCUM $end
$var parameter 3 6 DONE $end
$var parameter 3 7 IDLE $end
$var parameter 3 8 INIT $end
$var parameter 3 9 ITERATE1 $end
$var parameter 3 : ITERATE2 $end
$var reg 1 3 cntUp $end
$var reg 1 " done $end
$var reg 1 2 init0 $end
$var reg 1 1 initExp1 $end
$var reg 1 0 initT1 $end
$var reg 1 / ldExp $end
$var reg 1 . ldT $end
$var reg 1 - ldX $end
$var reg 3 ; next [2:0] $end
$var reg 1 + selXorI $end
$var reg 3 < state [2:0] $end
$upscope $end
$scope module expDataPath $end
$var wire 1 # clk $end
$var wire 1 3 cntUp $end
$var wire 1 2 init0 $end
$var wire 1 1 initExp1 $end
$var wire 1 0 initT1 $end
$var wire 1 / ldExp $end
$var wire 1 . ldT $end
$var wire 1 - ldX $end
$var wire 18 = rBus [17:0] $end
$var wire 1 $ rst $end
$var wire 1 + selXorI $end
$var wire 16 > xBus [15:0] $end
$var wire 16 ? xOut [15:0] $end
$var wire 16 @ tOut [15:0] $end
$var wire 16 A muxOut [15:0] $end
$var wire 32 B multResult [31:0] $end
$var wire 16 C multOut [15:0] $end
$var wire 16 D lutOut [15:0] $end
$var wire 19 E fullAdd [18:0] $end
$var wire 18 F expOut [17:0] $end
$var wire 3 G cntOut [2:0] $end
$var wire 1 4 cnt8 $end
$var wire 18 H addOut [17:0] $end
$scope module cntr $end
$var wire 1 # clk $end
$var wire 1 3 cntUp $end
$var wire 1 2 init0 $end
$var wire 1 $ rst $end
$var parameter 32 I m $end
$var reg 3 J cnt [2:0] $end
$upscope $end
$scope module eReg $end
$var wire 1 # clk $end
$var wire 18 K in [17:0] $end
$var wire 1 1 init $end
$var wire 1 / load $end
$var wire 1 $ rst $end
$var parameter 18 L INIT_VALUE $end
$var parameter 32 M n $end
$var reg 18 N out [17:0] $end
$upscope $end
$scope module lut $end
$var wire 3 O addr [2:0] $end
$var wire 16 P out [15:0] $end
$var reg 16 Q dataOut [15:0] $end
$upscope $end
$scope module tReg $end
$var wire 1 # clk $end
$var wire 16 R in [15:0] $end
$var wire 1 0 init $end
$var wire 1 . load $end
$var wire 1 $ rst $end
$var parameter 16 S INIT_VALUE $end
$var parameter 32 T n $end
$var reg 16 U out [15:0] $end
$upscope $end
$scope module xReg $end
$var wire 1 # clk $end
$var wire 16 V in [15:0] $end
$var wire 1 W init $end
$var wire 1 - load $end
$var wire 1 $ rst $end
$var parameter 16 X INIT_VALUE $end
$var parameter 32 Y n $end
$var reg 16 Z out [15:0] $end
$upscope $end
$upscope $end
$upscope $end
$upscope $end
$enddefinitions $end
$comment Show the parameter values. $end
$dumpall
b10000 Y
b0 X
b10000 T
b1111111111111111 S
b10010 M
b10000000000000000 L
b11 I
b11 :
b10 9
b1 8
b0 7
b101 6
b100 5
$end
#0
$dumpvars
b0 Z
0W
b0 V
b0 U
b0 R
b1111111111111111 Q
b1111111111111111 P
b0 O
b0 N
b0 K
b0 J
b0 H
b0 G
b0 F
b0 E
b1111111111111111 D
b0 C
b0 B
b1111111111111111 A
b0 @
b0 ?
b0 >
b0 =
b0 <
b0 ;
04
03
02
01
00
0/
0.
0-
b0 ,
0+
b0 *
bx )
bx (
bx '
b0 &
0%
1$
0#
0"
b0 !
$end
#5000
1#
#10000
0#
#15000
1#
#20000
0#
0$
#25000
1#
#30000
b1 ;
0#
1%
#35000
b10 ;
1-
12
11
10
b1 <
1#
#40000
0#
#45000
b11111111111111111 H
b11111111111111111 K
b0 A
b0 C
b0 R
b11 ;
1.
1+
02
01
00
0-
b10000000000000000 !
b10000000000000000 ,
b10000000000000000 =
b10000000000000000 F
b10000000000000000 N
b11111111111111111 E
b0 B
b1111111111111111 @
b1111111111111111 U
b10 <
1#
#50000
0#
#55000
b1111111111111111 A
b10000000000000000 H
b10000000000000000 K
b100 ;
0+
1.
b11 <
b10000000000000000 E
b0 @
b0 U
1#
#60000
0#
#65000
b10 ;
13
1/
0.
b100 <
1#
#70000
0#
#75000
b0 A
b11 ;
1.
1+
03
0/
b1000000000000000 D
b1000000000000000 P
b1000000000000000 Q
b10 <
b1 G
b1 J
b1 O
1#
#80000
0#
#85000
b1000000000000000 A
b100 ;
0+
1.
b11 <
1#
#90000
0#
#95000
b10 ;
13
1/
0.
b100 <
1#
#100000
0#
#105000
b0 A
b101010101010101 D
b101010101010101 P
b101010101010101 Q
b11 ;
1.
1+
03
0/
b10 G
b10 J
b10 O
b10 <
1#
#110000
0#
#115000
b101010101010101 A
b100 ;
0+
1.
b11 <
1#
#120000
0#
#125000
b10 ;
13
1/
0.
b100 <
1#
#130000
0#
#135000
b0 A
b11 ;
1.
1+
03
0/
b100000000000000 D
b100000000000000 P
b100000000000000 Q
b10 <
b11 G
b11 J
b11 O
1#
#140000
0#
#145000
b100000000000000 A
b100 ;
0+
1.
b11 <
1#
#150000
0#
#155000
b10 ;
13
1/
0.
b100 <
1#
#160000
0#
#165000
b0 A
b11001100110011 D
b11001100110011 P
b11001100110011 Q
b11 ;
1.
1+
03
0/
b100 G
b100 J
b100 O
b10 <
1#
#170000
0#
#175000
b11001100110011 A
b100 ;
0+
1.
b11 <
1#
#180000
0#
#185000
b10 ;
13
1/
0.
b100 <
1#
#190000
0#
#195000
b0 A
b11 ;
1.
1+
03
0/
b10101010101011 D
b10101010101011 P
b10101010101011 Q
b10 <
b101 G
b101 J
b101 O
1#
#200000
0#
#205000
b10101010101011 A
b100 ;
0+
1.
b11 <
1#
#210000
0#
#215000
b10 ;
13
1/
0.
b100 <
1#
#220000
0#
#225000
b0 A
b10010010010010 D
b10010010010010 P
b10010010010010 Q
b11 ;
1.
1+
03
0/
b110 G
b110 J
b110 O
b10 <
1#
#230000
0#
#235000
b10010010010010 A
b100 ;
0+
1.
b11 <
1#
#240000
0#
#245000
b10 ;
13
1/
0.
b100 <
1#
#250000
0#
#255000
b0 A
b10000000000000 D
b10000000000000 P
b10000000000000 Q
b11 ;
1.
1+
03
0/
b10 <
14
b111 G
b111 J
b111 O
1#
#260000
0#
#265000
b10000000000000 A
b100 ;
0+
1.
b11 <
1#
#270000
0#
#275000
b101 ;
13
1/
0.
b100 <
1#
#280000
0#
#285000
b1111111111111111 A
b1111111111111111 D
b1111111111111111 P
b1111111111111111 Q
1"
03
0/
04
b0 G
b0 J
b0 O
b101 <
1#
#290000
0#
#295000
b0 <
b0 ;
0"
1#
b10000000000000000 '
b10000000000000000 (
b100000000 )
0%
#300000
0#
#305000
1#
#310000
0#
#315000
1#
#320000
0#
#325000
1#
#330000
0#
#335000
1#
#340000
0#
#345000
1-
12
11
10
b1 <
b10 ;
1#
1%
b1111111111111111 &
b1111111111111111 *
b1111111111111111 >
b1111111111111111 V
#350000
0#
#355000
b11111111111111111 H
b11111111111111111 K
b11 ;
1.
1+
02
01
00
0-
b1111111111111110 C
b1111111111111110 R
b10 <
b1111111111111111 ?
b1111111111111111 Z
b11111111111111111 E
b11111111111111100000000000000001 B
b1111111111111111 @
b1111111111111111 U
1#
#360000
0#
#365000
b11111111111111110 H
b11111111111111110 K
b1111111111111101 C
b1111111111111101 R
b100 ;
0+
1.
b11111111111111110 E
b11111111111111010000000000000010 B
b1111111111111110 @
b1111111111111110 U
b11 <
1#
#370000
0#
#375000
b11111111111111101 H
b11111111111111101 K
b10 ;
13
1/
0.
b1111111111111100 C
b1111111111111100 R
b100 <
b11111111111111101 E
b11111111111111000000000000000011 B
b1111111111111101 @
b1111111111111101 U
1#
#380000
0#
#385000
b101111111111111010 H
b101111111111111010 K
b1000000000000000 D
b1000000000000000 P
b1000000000000000 Q
b11 ;
1.
1+
03
0/
b101111111111111010 E
b11111111111111101 !
b11111111111111101 ,
b11111111111111101 =
b11111111111111101 F
b11111111111111101 N
b1 G
b1 J
b1 O
b10 <
1#
#390000
0#
#395000
b1000000000000000 A
b101111111111111001 H
b101111111111111001 K
b100 ;
0+
1.
b111111111111110 C
b111111111111110 R
b11 <
b101111111111111001 E
b1111111111111100000000000000000 B
b1111111111111100 @
b1111111111111100 U
1#
#400000
0#
#405000
b100111111111111011 H
b100111111111111011 K
b11111111111111 C
b11111111111111 R
b10 ;
13
1/
0.
b100111111111111011 E
b111111111111110000000000000000 B
b111111111111110 @
b111111111111110 U
b100 <
1#
#410000
0#
#415000
b111111111111101 C
b111111111111101 R
b1111111111111011000000000000010 B
b1111111111111111 A
b101111111111111001 H
b101111111111111001 K
b11 ;
1.
1+
03
0/
b101010101010101 D
b101010101010101 P
b101010101010101 Q
b10 <
b10 G
b10 J
b10 O
b101111111111111001 E
b100111111111111011 !
b100111111111111011 ,
b100111111111111011 =
b100111111111111011 F
b100111111111111011 N
1#
#420000
0#
#425000
b101111111111111000 H
b101111111111111000 K
b101010101010101 A
b10101010101001 C
b10101010101001 R
b100 ;
0+
1.
b101111111111111000 E
b101010101010011000000000000001 B
b111111111111101 @
b111111111111101 U
b11 <
1#
#430000
0#
#435000
b101010101010100100 H
b101010101010100100 K
b10 ;
13
1/
0.
b111000111000 C
b111000111000 R
b100 <
b101010101010100100 E
b1110001110000100011100011101 B
b10101010101001 @
b10101010101001 U
1#
#440000
0#
#445000
b10101010101000 C
b10101010101000 R
b101101010101001101 H
b101101010101001101 K
b101010101010001101010101010111 B
b1111111111111111 A
b100000000000000 D
b100000000000000 P
b100000000000000 Q
b11 ;
1.
1+
03
0/
b101101010101001101 E
b101010101010100100 !
b101010101010100100 ,
b101010101010100100 =
b101010101010100100 F
b101010101010100100 N
b11 G
b11 J
b11 O
b10 <
1#
#450000
0#
#455000
b100000000000000 A
b101101010101001100 H
b101101010101001100 K
b100 ;
0+
1.
b101010101010 C
b101010101010 R
b11 <
b101101010101001100 E
b1010101010100000000000000000 B
b10101010101000 @
b10101010101000 U
1#
#460000
0#
#465000
b101011010101001110 H
b101011010101001110 K
b1010101010 C
b1010101010 R
b10 ;
13
1/
0.
b101011010101001110 E
b10101010101000000000000000 B
b101010101010 @
b101010101010 U
b100 <
1#
#470000
0#
#475000
b101010101001 C
b101010101001 R
b1010101010011111010101010110 B
b1111111111111111 A
b101011111111111000 H
b101011111111111000 K
b11 ;
1.
1+
03
0/
b11001100110011 D
b11001100110011 P
b11001100110011 Q
b10 <
b100 G
b100 J
b100 O
b101011111111111000 E
b101011010101001110 !
b101011010101001110 ,
b101011010101001110 =
b101011010101001110 F
b101011010101001110 N
1#
#480000
0#
#485000
b101011111111110111 H
b101011111111110111 K
b11001100110011 A
b1000100001 C
b1000100001 R
b100 ;
0+
1.
b101011111111110111 E
b10001000011100101010101011 B
b101010101001 @
b101010101001 U
b11 <
1#
#490000
0#
#495000
b101011011101101111 H
b101011011101101111 K
b10 ;
13
1/
0.
b1101100 C
b1101100 R
b100 <
b101011011101101111 E
b11011001111111110010011 B
b1000100001 @
b1000100001 U
1#
#500000
0#
#505000
b1000100000 C
b1000100000 R
b101011100110010000 H
b101011100110010000 K
b10001000001111110111011111 B
b1111111111111111 A
b10101010101011 D
b10101010101011 P
b10101010101011 Q
b11 ;
1.
1+
03
0/
b101011100110010000 E
b101011011101101111 !
b101011011101101111 ,
b101011011101101111 =
b101011011101101111 F
b101011011101101111 N
b101 G
b101 J
b101 O
b10 <
1#
#510000
0#
#515000
b10101010101011 A
b101011100110001111 H
b101011100110001111 K
b100 ;
0+
1.
b1011010 C
b1011010 R
b11 <
b101011100110001111 E
b10110101010101101100000 B
b1000100000 @
b1000100000 U
1#
#520000
0#
#525000
b101011011111001001 H
b101011011111001001 K
b1111 C
b1111 R
b10 ;
13
1/
0.
b101011011111001001 E
b11110000000000011110 B
b1011010 @
b1011010 U
b100 <
1#
#530000
0#
#535000
b1011001 C
b1011001 R
b10110011111111110100110 B
b1111111111111111 A
b101011100000100011 H
b101011100000100011 K
b11 ;
1.
1+
03
0/
b10010010010010 D
b10010010010010 P
b10010010010010 Q
b10 <
b110 G
b110 J
b110 O
b101011100000100011 E
b101011011111001001 !
b101011011111001001 ,
b101011011111001001 =
b101011011111001001 F
b101011011111001001 N
1#
#540000
0#
#545000
b101011100000100010 H
b101011100000100010 K
b10010010010010 A
b1100 C
b1100 R
b100 ;
0+
1.
b101011100000100010 E
b11001011011011000010 B
b1011001 @
b1011001 U
b11 <
1#
#550000
0#
#555000
b101011011111010101 H
b101011011111010101 K
b10 ;
13
1/
0.
b1 C
b1 R
b100 <
b101011011111010101 E
b11011011011011000 B
b1100 @
b1100 U
1#
#560000
0#
#565000
b1011 C
b1011 R
b101011011111100001 H
b101011011111100001 K
b10111111111111110100 B
b1111111111111111 A
b10000000000000 D
b10000000000000 P
b10000000000000 Q
b11 ;
1.
1+
03
0/
b101011011111100001 E
b101011011111010101 !
b101011011111010101 ,
b101011011111010101 =
b101011011111010101 F
b101011011111010101 N
14
b111 G
b111 J
b111 O
b10 <
1#
#570000
0#
#575000
b10000000000000 A
b101011011111100000 H
b101011011111100000 K
b100 ;
0+
1.
b1 C
b1 R
b11 <
b101011011111100000 E
b10110000000000000 B
b1011 @
b1011 U
1#
#580000
0#
#585000
b101011011111010110 H
b101011011111010110 K
b0 C
b0 R
b101 ;
13
1/
0.
b101011011111010110 E
b10000000000000 B
b1 @
b1 U
b100 <
1#
#590000
0#
#595000
b1111111111111111 B
b1111111111111111 A
b101011011111010111 H
b101011011111010111 K
b1111111111111111 D
b1111111111111111 P
b1111111111111111 Q
1"
03
0/
b101 <
04
b0 G
b0 J
b0 O
b101011011111010111 E
b101011011111010110 !
b101011011111010110 ,
b101011011111010110 =
b101011011111010110 F
b101011011111010110 N
1#
#600000
0#
#605000
b0 <
b0 ;
0"
1#
b101011011111010110 '
b101011011111100001 (
0%
#610000
0#
#615000
1#
#620000
0#
#625000
1#
#630000
0#
#635000
1#
#640000
0#
#645000
1#
#650000
0#
#655000
1-
12
11
10
b1 <
b10 ;
1#
1%
b1000000000000000 &
b1000000000000000 *
b1000000000000000 >
b1000000000000000 V
#660000
0#
#665000
b11111111111111111 H
b11111111111111111 K
b1000000000000000 A
b111111111111111 C
b111111111111111 R
b11 ;
1.
1+
02
01
00
0-
b10000000000000000 !
b10000000000000000 ,
b10000000000000000 =
b10000000000000000 F
b10000000000000000 N
b11111111111111111 E
b1111111111111111000000000000000 B
b1111111111111111 @
b1111111111111111 U
b1000000000000000 ?
b1000000000000000 Z
b10 <
1#
#670000
0#
#675000
b1111111111111111 A
b10111111111111111 H
b10111111111111111 K
b100 ;
0+
1.
b111111111111110 C
b111111111111110 R
b11 <
b10111111111111111 E
b1111111111111101000000000000001 B
b111111111111111 @
b111111111111111 U
1#
#680000
0#
#685000
b10111111111111110 H
b10111111111111110 K
b111111111111101 C
b111111111111101 R
b10 ;
13
1/
0.
b10111111111111110 E
b1111111111111011000000000000010 B
b111111111111110 @
b111111111111110 U
b100 <
1#
#690000
0#
#695000
b11111111111111 C
b11111111111111 R
b111111111111110000000000000000 B
b1000000000000000 A
b11111111111111100 H
b11111111111111100 K
b11 ;
1.
1+
03
0/
b1000000000000000 D
b1000000000000000 P
b1000000000000000 Q
b10 <
b1 G
b1 J
b1 O
b11111111111111100 E
b10111111111111110 !
b10111111111111110 ,
b10111111111111110 =
b10111111111111110 F
b10111111111111110 N
1#
#700000
0#
#705000
b11011111111111101 H
b11011111111111101 K
b1111111111111 C
b1111111111111 R
b100 ;
0+
1.
b11011111111111101 E
b11111111111111000000000000000 B
b11111111111111 @
b11111111111111 U
b11 <
1#
#710000
0#
#715000
b11001111111111101 H
b11001111111111101 K
b10 ;
13
1/
0.
b111111111111 C
b111111111111 R
b100 <
b11001111111111101 E
b1111111111111000000000000000 B
b1111111111111 @
b1111111111111 U
1#
#720000
0#
#725000
b11011111111111100 H
b11011111111111100 K
b101010101010101 D
b101010101010101 P
b101010101010101 Q
b11 ;
1.
1+
03
0/
b11011111111111100 E
b11001111111111101 !
b11001111111111101 ,
b11001111111111101 =
b11001111111111101 F
b11001111111111101 N
b10 G
b10 J
b10 O
b10 <
1#
#730000
0#
#735000
b101010101010101 A
b11010111111111100 H
b11010111111111100 K
b100 ;
0+
1.
b10101010100 C
b10101010100 R
b11 <
b11010111111111100 E
b101010101001111101010101011 B
b111111111111 @
b111111111111 U
1#
#740000
0#
#745000
b11010010101010001 H
b11010010101010001 K
b111000110 C
b111000110 R
b10 ;
13
1/
0.
b11010010101010001 E
b1110001101010100011100100 B
b10101010100 @
b10101010100 U
b100 <
1#
#750000
0#
#755000
b1010101010 C
b1010101010 R
b10101010100000000000000000 B
b1000000000000000 A
b11010101010100101 H
b11010101010100101 K
b11 ;
1.
1+
03
0/
b100000000000000 D
b100000000000000 P
b100000000000000 Q
b10 <
b11 G
b11 J
b11 O
b11010101010100101 E
b11010010101010001 !
b11010010101010001 ,
b11010010101010001 =
b11010010101010001 F
b11010010101010001 N
1#
#760000
0#
#765000
b11010011111111011 H
b11010011111111011 K
b100000000000000 A
b10101010 C
b10101010 R
b100 ;
0+
1.
b11010011111111011 E
b101010101000000000000000 B
b1010101010 @
b1010101010 U
b11 <
1#
#770000
0#
#775000
b11010010111111011 H
b11010010111111011 K
b10 ;
13
1/
0.
b101010 C
b101010 R
b100 <
b11010010111111011 E
b1010101000000000000000 B
b10101010 @
b10101010 U
1#
#780000
0#
#785000
b1010101 C
b1010101 R
b11010011010100101 H
b11010011010100101 K
b10101010000000000000000 B
b1000000000000000 A
b11001100110011 D
b11001100110011 P
b11001100110011 Q
b11 ;
1.
1+
03
0/
b11010011010100101 E
b11010010111111011 !
b11010010111111011 ,
b11010010111111011 =
b11010010111111011 F
b11010010111111011 N
b100 G
b100 J
b100 O
b10 <
1#
#790000
0#
#795000
b11001100110011 A
b11010011001010000 H
b11010011001010000 K
b100 ;
0+
1.
b10000 C
b10000 R
b11 <
b11010011001010000 E
b100001111111111101111 B
b1010101 @
b1010101 U
1#
#800000
0#
#805000
b11010011000001011 H
b11010011000001011 K
b11 C
b11 R
b10 ;
13
1/
0.
b11010011000001011 E
b110011001100110000 B
b10000 @
b10000 U
b100 <
1#
#810000
0#
#815000
b1000 C
b1000 R
b10000000000000000000 B
b1000000000000000 A
b11010011000011011 H
b11010011000011011 K
b11 ;
1.
1+
03
0/
b10101010101011 D
b10101010101011 P
b10101010101011 Q
b10 <
b101 G
b101 J
b101 O
b11010011000011011 E
b11010011000001011 !
b11010011000001011 ,
b11010011000001011 =
b11010011000001011 F
b11010011000001011 N
1#
#820000
0#
#825000
b11010011000010011 H
b11010011000010011 K
b10101010101011 A
b1 C
b1 R
b100 ;
0+
1.
b11010011000010011 E
b10101010101011000 B
b1000 @
b1000 U
b11 <
1#
#830000
0#
#835000
b11010011000001100 H
b11010011000001100 K
b10 ;
13
1/
0.
b0 C
b0 R
b100 <
b11010011000001100 E
b10101010101011 B
b1 @
b1 U
1#
#840000
0#
#845000
b11010011000001101 H
b11010011000001101 K
b1000000000000000 B
b1000000000000000 A
b10010010010010 D
b10010010010010 P
b10010010010010 Q
b11 ;
1.
1+
03
0/
b11010011000001101 E
b11010011000001100 !
b11010011000001100 ,
b11010011000001100 =
b11010011000001100 F
b11010011000001100 N
b110 G
b110 J
b110 O
b10 <
1#
#850000
0#
#855000
b10010010010010 A
b11010011000001100 H
b11010011000001100 K
b100 ;
0+
1.
b11 <
b11010011000001100 E
b0 B
b0 @
b0 U
1#
#860000
0#
#865000
b10 ;
13
1/
0.
b100 <
1#
#870000
0#
#875000
b1000000000000000 A
b10000000000000 D
b10000000000000 P
b10000000000000 Q
b11 ;
1.
1+
03
0/
b10 <
14
b111 G
b111 J
b111 O
1#
#880000
0#
#885000
b10000000000000 A
b100 ;
0+
1.
b11 <
1#
#890000
0#
#895000
b101 ;
13
1/
0.
b100 <
1#
#900000
0#
#905000
b1111111111111111 A
b1111111111111111 D
b1111111111111111 P
b1111111111111111 Q
1"
03
0/
04
b0 G
b0 J
b0 O
b101 <
1#
#910000
0#
#915000
b0 <
b0 ;
0"
1#
b11010011000001100 '
b11010011000010010 (
0%
#920000
0#
#925000
1#
#930000
0#
#935000
1#
#940000
0#
#945000
1#
#950000
0#
#955000
1#
#960000
0#
#965000
1-
12
11
10
b1 <
b10 ;
1#
1%
#970000
0#
#975000
b1000000000000000 A
b11111111111111111 H
b11111111111111111 K
b11 ;
1.
1+
02
01
00
0-
b111111111111111 C
b111111111111111 R
b10 <
b1111111111111111000000000000000 B
b1111111111111111 @
b1111111111111111 U
b11111111111111111 E
b10000000000000000 !
b10000000000000000 ,
b10000000000000000 =
b10000000000000000 F
b10000000000000000 N
1#
#980000
0#
#985000
b10111111111111111 H
b10111111111111111 K
b1111111111111111 A
b111111111111110 C
b111111111111110 R
b100 ;
0+
1.
b10111111111111111 E
b1111111111111101000000000000001 B
b111111111111111 @
b111111111111111 U
b11 <
1#
#990000
0#
#995000
b10111111111111110 H
b10111111111111110 K
b10 ;
13
1/
0.
b111111111111101 C
b111111111111101 R
b100 <
b10111111111111110 E
b1111111111111011000000000000010 B
b111111111111110 @
b111111111111110 U
1#
#1000000
0#
#1005000
b11111111111111 C
b11111111111111 R
b11111111111111100 H
b11111111111111100 K
b111111111111110000000000000000 B
b1000000000000000 A
b1000000000000000 D
b1000000000000000 P
b1000000000000000 Q
b11 ;
1.
1+
03
0/
b11111111111111100 E
b10111111111111110 !
b10111111111111110 ,
b10111111111111110 =
b10111111111111110 F
b10111111111111110 N
b1 G
b1 J
b1 O
b10 <
1#
#1010000
0#
#1015000
b11011111111111101 H
b11011111111111101 K
b100 ;
0+
1.
b1111111111111 C
b1111111111111 R
b11 <
b11011111111111101 E
b11111111111111000000000000000 B
b11111111111111 @
b11111111111111 U
1#
#1020000
0#
#1025000
b11001111111111101 H
b11001111111111101 K
b111111111111 C
b111111111111 R
b10 ;
13
1/
0.
b11001111111111101 E
b1111111111111000000000000000 B
b1111111111111 @
b1111111111111 U
b100 <
1#
#1030000
0#
#1035000
b11011111111111100 H
b11011111111111100 K
b11 ;
1.
1+
03
0/
b101010101010101 D
b101010101010101 P
b101010101010101 Q
b10 <
b10 G
b10 J
b10 O
b11011111111111100 E
b11001111111111101 !
b11001111111111101 ,
b11001111111111101 =
b11001111111111101 F
b11001111111111101 N
1#
#1040000
0#
#1045000
b11010111111111100 H
b11010111111111100 K
b101010101010101 A
b10101010100 C
b10101010100 R
b100 ;
0+
1.
b11010111111111100 E
b101010101001111101010101011 B
b111111111111 @
b111111111111 U
b11 <
1#
#1050000
0#
#1055000
b11010010101010001 H
b11010010101010001 K
b10 ;
13
1/
0.
b111000110 C
b111000110 R
b100 <
b11010010101010001 E
b1110001101010100011100100 B
b10101010100 @
b10101010100 U
1#
#1060000
0#
#1065000
b1010101010 C
b1010101010 R
b11010101010100101 H
b11010101010100101 K
b10101010100000000000000000 B
b1000000000000000 A
b100000000000000 D
b100000000000000 P
b100000000000000 Q
b11 ;
1.
1+
03
0/
b11010101010100101 E
b11010010101010001 !
b11010010101010001 ,
b11010010101010001 =
b11010010101010001 F
b11010010101010001 N
b11 G
b11 J
b11 O
b10 <
1#
#1070000
0#
#1075000
b100000000000000 A
b11010011111111011 H
b11010011111111011 K
b100 ;
0+
1.
b10101010 C
b10101010 R
b11 <
b11010011111111011 E
b101010101000000000000000 B
b1010101010 @
b1010101010 U
1#
#1080000
0#
#1085000
b11010010111111011 H
b11010010111111011 K
b101010 C
b101010 R
b10 ;
13
1/
0.
b11010010111111011 E
b1010101000000000000000 B
b10101010 @
b10101010 U
b100 <
1#
#1090000
0#
#1095000
b1010101 C
b1010101 R
b10101010000000000000000 B
b1000000000000000 A
b11010011010100101 H
b11010011010100101 K
b11 ;
1.
1+
03
0/
b11001100110011 D
b11001100110011 P
b11001100110011 Q
b10 <
b100 G
b100 J
b100 O
b11010011010100101 E
b11010010111111011 !
b11010010111111011 ,
b11010010111111011 =
b11010010111111011 F
b11010010111111011 N
1#
#1100000
0#
#1105000
b11010011001010000 H
b11010011001010000 K
b11001100110011 A
b10000 C
b10000 R
b100 ;
0+
1.
b11010011001010000 E
b100001111111111101111 B
b1010101 @
b1010101 U
b11 <
1#
#1110000
0#
#1115000
b11010011000001011 H
b11010011000001011 K
b10 ;
13
1/
0.
b11 C
b11 R
b100 <
b11010011000001011 E
b110011001100110000 B
b10000 @
b10000 U
1#
#1120000
0#
#1125000
b1000 C
b1000 R
b11010011000011011 H
b11010011000011011 K
b10000000000000000000 B
b1000000000000000 A
b10101010101011 D
b10101010101011 P
b10101010101011 Q
b11 ;
1.
1+
03
0/
b11010011000011011 E
b11010011000001011 !
b11010011000001011 ,
b11010011000001011 =
b11010011000001011 F
b11010011000001011 N
b101 G
b101 J
b101 O
b10 <
1#
#1130000
0#
#1135000
b10101010101011 A
b11010011000010011 H
b11010011000010011 K
b100 ;
0+
1.
b1 C
b1 R
b11 <
b11010011000010011 E
b10101010101011000 B
b1000 @
b1000 U
1#
#1140000
0#
#1145000
b11010011000001100 H
b11010011000001100 K
b0 C
b0 R
b10 ;
13
1/
0.
b11010011000001100 E
b10101010101011 B
b1 @
b1 U
b100 <
1#
#1150000
0#
#1155000
b1000000000000000 B
b1000000000000000 A
b11010011000001101 H
b11010011000001101 K
b11 ;
1.
1+
03
0/
b10010010010010 D
b10010010010010 P
b10010010010010 Q
b10 <
b110 G
b110 J
b110 O
b11010011000001101 E
b11010011000001100 !
b11010011000001100 ,
b11010011000001100 =
b11010011000001100 F
b11010011000001100 N
1#
#1160000
0#
#1165000
b11010011000001100 H
b11010011000001100 K
b10010010010010 A
b100 ;
0+
1.
b11010011000001100 E
b0 B
b0 @
b0 U
b11 <
1#
#1170000
0#
#1175000
b10 ;
13
1/
0.
b100 <
1#
#1180000
0#
#1185000
b1000000000000000 A
b10000000000000 D
b10000000000000 P
b10000000000000 Q
b11 ;
1.
1+
03
0/
14
b111 G
b111 J
b111 O
b10 <
1#
#1190000
0#
#1195000
b10000000000000 A
b100 ;
0+
1.
b11 <
1#
#1200000
0#
#1205000
b101 ;
13
1/
0.
b100 <
1#
#1210000
0#
#1215000
b1111111111111111 A
b1111111111111111 D
b1111111111111111 P
b1111111111111111 Q
1"
03
0/
b101 <
04
b0 G
b0 J
b0 O
1#
#1220000
0#
#1225000
b0 <
b0 ;
0"
1#
b1001101101100011 (
0%
#1230000
0#
#1235000
1#
#1240000
0#
#1245000
1#
#1250000
0#
#1255000
1#
#1260000
0#
#1265000
1#
#1270000
0#
#1275000
1-
12
11
10
b1 <
b10 ;
1#
1%
b1111111111111111 &
b1111111111111111 *
b1111111111111111 >
b1111111111111111 V
#1280000
0#
#1285000
b11111111111111111 H
b11111111111111111 K
b1111111111111110 C
b1111111111111110 R
b11 ;
1.
1+
02
01
00
0-
b10000000000000000 !
b10000000000000000 ,
b10000000000000000 =
b10000000000000000 F
b10000000000000000 N
b11111111111111111 E
b11111111111111100000000000000001 B
b1111111111111111 @
b1111111111111111 U
b1111111111111111 ?
b1111111111111111 Z
b10 <
1#
#1290000
0#
#1295000
b11111111111111110 H
b11111111111111110 K
b100 ;
0+
1.
b1111111111111101 C
b1111111111111101 R
b11 <
b11111111111111110 E
b11111111111111010000000000000010 B
b1111111111111110 @
b1111111111111110 U
1#
#1300000
0#
#1305000
b0 H
b0 K
b0 C
b0 R
0.
b1 ;
b0 !
b0 ,
b0 =
b0 F
b0 N
b0 E
b0 B
b0 @
b0 U
b0 ?
b0 Z
b0 <
1#
1$
#1310000
0#
#1315000
b0 ;
1#
0%
0$
#1320000
0#
#1325000
1#
#1330000
0#
#1335000
1#
#1340000
0#
#1345000
1#
#1350000
0#
#1355000
1#
#1360000
0#
#1365000
1-
12
11
10
b1 <
b10 ;
1#
1%
b100000000000000 &
b100000000000000 *
b100000000000000 >
b100000000000000 V
#1370000
0#
#1375000
b100000000000000 A
b11111111111111111 H
b11111111111111111 K
b11 ;
1.
1+
02
01
00
0-
b11111111111111 C
b11111111111111 R
b10 <
b100000000000000 ?
b100000000000000 Z
b111111111111111100000000000000 B
b1111111111111111 @
b1111111111111111 U
b11111111111111111 E
b10000000000000000 !
b10000000000000000 ,
b10000000000000000 =
b10000000000000000 F
b10000000000000000 N
1#
#1380000
0#
#1385000
b10011111111111111 H
b10011111111111111 K
b1111111111111111 A
b11111111111110 C
b11111111111110 R
b100 ;
0+
1.
b10011111111111111 E
b111111111111101100000000000001 B
b11111111111111 @
b11111111111111 U
b11 <
1#
#1390000
0#
#1395000
b10011111111111110 H
b10011111111111110 K
b10 ;
13
1/
0.
b11111111111101 C
b11111111111101 R
b100 <
b10011111111111110 E
b111111111111011100000000000010 B
b11111111111110 @
b11111111111110 U
1#
#1400000
0#
