sin_test.vcd
$date
	Wed Feb  5 15:48:23 2025
$end
$version
	Icarus Verilog
$end
$timescale
	1ps
$end
$scope module sin_tb $end
$var wire 18 ! rBus [17:0] $end
$var wire 1 " done $end
$var reg 1 # clk $end
$var reg 1 $ rst $end
$var reg 1 % start $end
$var reg 16 & xBus [15:0] $end
$scope function is_within_margin $end
$var reg 18 ' actual [17:0] $end
$var reg 18 ( expected [17:0] $end
$var reg 18 ) margin [17:0] $end
$upscope $end
$scope module dut $end
$var wire 1 # clk $end
$var wire 1 $ rst $end
$var wire 1 % start $end
$var wire 16 * xBus [15:0] $end
$var wire 1 + selXorI $end
$var wire 18 , rBus [17:0] $end
$var wire 1 - ldX $end
$var wire 1 . ldT $end
$var wire 1 / ldSin $end
$var wire 1 0 initT1 $end
$var wire 1 1 initSin1 $end
$var wire 1 2 init0 $end
$var wire 1 " done $end
$var wire 1 3 cntUp $end
$var wire 1 4 cnt4 $end
$scope module sinControl $end
$var wire 1 # clk $end
$var wire 1 $ rst $end
$var wire 1 % start $end
$var wire 1 4 cnt4 $end
$var parameter 3 5 ACCUM $end
$var parameter 3 6 DONE $end
$var parameter 3 7 IDLE $end
$var parameter 3 8 INIT $end
$var parameter 3 9 ITERATE1 $end
$var parameter 3 : ITERATE2 $end
$var reg 1 3 cntUp $end
$var reg 1 " done $end
$var reg 1 2 init0 $end
$var reg 1 1 initSin1 $end
$var reg 1 0 initT1 $end
$var reg 1 / ldSin $end
$var reg 1 . ldT $end
$var reg 1 - ldX $end
$var reg 3 ; next [2:0] $end
$var reg 1 + selXorI $end
$var reg 3 < state [2:0] $end
$upscope $end
$scope module sinDataPath $end
$var wire 18 = addOut [17:0] $end
$var wire 1 # clk $end
$var wire 1 3 cntUp $end
$var wire 1 2 init0 $end
$var wire 1 1 initSin1 $end
$var wire 1 0 initT1 $end
$var wire 1 / ldSin $end
$var wire 1 . ldT $end
$var wire 1 - ldX $end
$var wire 18 > rBus [17:0] $end
$var wire 1 $ rst $end
$var wire 1 + selXorI $end
$var wire 16 ? xBus [15:0] $end
$var wire 16 @ xOut [15:0] $end
$var wire 18 A term [17:0] $end
$var wire 16 B tOut [15:0] $end
$var wire 18 C sinOut [17:0] $end
$var wire 18 D nextSum [17:0] $end
$var wire 16 E muxOut [15:0] $end
$var wire 32 F multResult [31:0] $end
$var wire 16 G multOut [15:0] $end
$var wire 16 H lutOut [15:0] $end
$var wire 1 I isOdd $end
$var wire 3 J cntOut [2:0] $end
$var wire 1 4 cnt4 $end
$scope module cntr $end
$var wire 1 # clk $end
$var wire 1 3 cntUp $end
$var wire 1 2 init0 $end
$var wire 1 $ rst $end
$var parameter 32 K m $end
$var reg 3 L cnt [2:0] $end
$upscope $end
$scope module lut $end
$var wire 3 M addr [2:0] $end
$var wire 16 N out [15:0] $end
$var reg 16 O dataOut [15:0] $end
$upscope $end
$scope module sReg $end
$var wire 1 # clk $end
$var wire 18 P in [17:0] $end
$var wire 1 1 init $end
$var wire 1 / load $end
$var wire 1 $ rst $end
$var parameter 18 Q INIT_VALUE $end
$var parameter 32 R n $end
$var reg 18 S out [17:0] $end
$upscope $end
$scope module tReg $end
$var wire 1 # clk $end
$var wire 16 T in [15:0] $end
$var wire 1 0 init $end
$var wire 1 U load $end
$var wire 1 $ rst $end
$var parameter 16 V INIT_VALUE $end
$var parameter 32 W n $end
$var reg 16 X out [15:0] $end
$upscope $end
$scope module xReg $end
$var wire 1 # clk $end
$var wire 16 Y in [15:0] $end
$var wire 1 Z init $end
$var wire 1 - load $end
$var wire 1 $ rst $end
$var parameter 16 [ INIT_VALUE $end
$var parameter 32 \ n $end
$var reg 16 ] out [15:0] $end
$upscope $end
$upscope $end
$upscope $end
$upscope $end
$enddefinitions $end
$comment Show the parameter values. $end
$dumpall
b10000 \
b0 [
b10000 W
b0 V
b10010 R
b0 Q
b11 K
b11 :
b10 9
b1 8
b0 7
b101 6
b100 5
$end
#0
$dumpvars
b0 ]
0Z
b0 Y
b0 X
0U
b0 T
b0 S
b0 P
b1111111111111111 O
b1111111111111111 N
b0 M
b0 L
b0 J
0I
b1111111111111111 H
b0 G
b0 F
b1111111111111111 E
b0 D
b0 C
b0 B
b0 A
b0 @
b0 ?
b0 >
b0 =
b0 <
b0 ;
04
03
02
01
00
0/
0.
0-
b0 ,
0+
b0 *
bx )
bx (
bx '
b0 &
0%
1$
0#
0"
b0 !
$end
#5000
1#
#10000
0#
#15000
1#
#20000
0#
0$
#25000
1#
#30000
b1 ;
0#
1%
#35000
1U
b10 ;
12
11
10
1-
b1 <
1#
#40000
0#
#45000
b0 E
b11 ;
1.
1+
0-
00
01
02
b10 <
1#
#50000
0#
#55000
b1111111111111111 E
b100 ;
1.
0+
b11 <
1#
#60000
0#
#65000
0U
b10 ;
13
1/
0.
b100 <
1#
#70000
0#
#75000
1U
b0 E
b11 ;
1.
1+
0/
03
b10101010101011 H
b10101010101011 N
b10101010101011 O
1I
b10 <
b1 J
b1 L
b1 M
1#
#80000
0#
#85000
b10101010101011 E
b100 ;
1.
0+
b11 <
1#
#90000
0#
#95000
0U
b10 ;
13
1/
0.
b100 <
1#
#100000
0#
#105000
1U
b0 E
b100010001000 H
b100010001000 N
b100010001000 O
0I
b11 ;
1.
1+
0/
03
b10 J
b10 L
b10 M
b10 <
1#
#110000
0#
#115000
b100010001000 E
b100 ;
1.
0+
b11 <
1#
#120000
0#
#125000
0U
b10 ;
13
1/
0.
b100 <
1#
#130000
0#
#135000
1U
b0 E
b101000111 H
b101000111 N
b101000111 O
b11 ;
1.
1+
0/
03
1I
b10 <
14
b11 J
b11 L
b11 M
1#
#140000
0#
#145000
b101000111 E
b100 ;
1.
0+
b11 <
1#
#150000
0#
#155000
0U
b101 ;
13
1/
0.
b100 <
1#
#160000
0#
#165000
b0 E
b0 H
b0 N
b0 O
0I
1"
0/
03
04
b100 J
b100 L
b100 M
b101 <
1#
#170000
0#
#175000
b0 <
b0 ;
0"
1#
b0 '
b0 (
b100000000 )
0%
#180000
0#
#185000
1#
#190000
0#
#195000
1#
#200000
0#
#205000
1#
#210000
0#
#215000
1#
#220000
0#
#225000
1U
b1000011000000000 T
12
11
10
1-
b1 <
b10 ;
1#
1%
b1000011000000000 &
b1000011000000000 *
b1000011000000000 ?
b1000011000000000 Y
#230000
0#
#235000
b0 T
b1000011000000000 E
b11 ;
1.
1+
0-
00
01
02
b1111111111111111 H
b1111111111111111 N
b1111111111111111 O
b10 <
b0 J
b0 L
b0 M
b1000011000000000 @
b1000011000000000 ]
1#
#240000
0#
#245000
b1111111111111111 E
b100 ;
1.
0+
b11 <
1#
#250000
0#
#255000
0U
b10 ;
13
1/
0.
b100 <
1#
#260000
0#
#265000
1U
b1000011000000000 E
b10101010101011 H
b10101010101011 N
b10101010101011 O
1I
b11 ;
1.
1+
0/
03
b1 J
b1 L
b1 M
b10 <
1#
#270000
0#
#275000
b10101010101011 E
b100 ;
1.
0+
b11 <
1#
#280000
0#
#285000
0U
b10 ;
13
1/
0.
b100 <
1#
#290000
0#
#295000
1U
b1000011000000000 E
b11 ;
1.
1+
0/
03
b100010001000 H
b100010001000 N
b100010001000 O
0I
b10 <
b10 J
b10 L
b10 M
1#
#300000
0#
#305000
b100010001000 E
b100 ;
1.
0+
b11 <
1#
#310000
0#
#315000
0U
b10 ;
13
1/
0.
b100 <
1#
#320000
0#
#325000
1U
b1000011000000000 E
b101000111 H
b101000111 N
b101000111 O
1I
b11 ;
1.
1+
0/
03
14
b11 J
b11 L
b11 M
b10 <
1#
#330000
0#
#335000
b101000111 E
b100 ;
1.
0+
b11 <
1#
#340000
0#
#345000
0U
b101 ;
13
1/
0.
b100 <
1#
#350000
0#
#355000
b0 E
b0 H
b0 N
b0 O
1"
0/
03
0I
b101 <
04
b100 J
b100 L
b100 M
1#
#360000
0#
#365000
b0 <
b0 ;
0"
1#
b1000000000000000 (
0%
#370000
0#
#375000
1#
#380000
0#
#385000
1#
#390000
0#
#395000
1#
#400000
0#
#405000
1#
#410000
0#
#415000
1U
b1100100011110000 T
12
11
10
1-
b1 <
b10 ;
1#
1%
b1100100011110000 &
b1100100011110000 *
b1100100011110000 ?
b1100100011110000 Y
#420000
0#
#425000
b1100100011110000 E
b0 T
b1111111111111111 H
b1111111111111111 N
b1111111111111111 O
b11 ;
1.
1+
0-
00
01
02
b1100100011110000 @
b1100100011110000 ]
b0 J
b0 L
b0 M
b10 <
1#
#430000
0#
#435000
b1111111111111111 E
b100 ;
1.
0+
b11 <
1#
#440000
0#
#445000
0U
b10 ;
13
1/
0.
b100 <
1#
#450000
0#
#455000
1U
b1100100011110000 E
b11 ;
1.
1+
0/
03
b10101010101011 H
b10101010101011 N
b10101010101011 O
1I
b10 <
b1 J
b1 L
b1 M
1#
#460000
0#
#465000
b10101010101011 E
b100 ;
1.
0+
b11 <
1#
#470000
0#
#475000
0U
b10 ;
13
1/
0.
b100 <
1#
#480000
0#
#485000
1U
b1100100011110000 E
b100010001000 H
b100010001000 N
b100010001000 O
0I
b11 ;
1.
1+
0/
03
b10 J
b10 L
b10 M
b10 <
1#
#490000
0#
#495000
b100010001000 E
b100 ;
1.
0+
b11 <
1#
#500000
0#
#505000
0U
b10 ;
13
1/
0.
b100 <
1#
#510000
0#
#515000
1U
b1100100011110000 E
b101000111 H
b101000111 N
b101000111 O
b11 ;
1.
1+
0/
03
1I
b10 <
14
b11 J
b11 L
b11 M
1#
#520000
0#
#525000
b101000111 E
b100 ;
1.
0+
b11 <
1#
#530000
0#
#535000
0U
b101 ;
13
1/
0.
b100 <
1#
#540000
0#
#545000
b0 E
b0 H
b0 N
b0 O
0I
1"
0/
03
04
b100 J
b100 L
b100 M
b101 <
1#
#550000
0#
#555000
b0 <
b0 ;
0"
1#
b1011010100000101 (
0%
#560000
0#
#565000
1#
#570000
0#
#575000
1#
#580000
0#
#585000
1#
#590000
0#
#595000
1#
#600000
0#
#605000
1U
b111101000000000 T
12
11
10
1-
b1 <
b10 ;
1#
1%
b111101000000000 &
b111101000000000 *
b111101000000000 ?
b111101000000000 Y
#610000
0#
#615000
b0 T
b111101000000000 E
b11 ;
1.
1+
0-
00
01
02
b1111111111111111 H
b1111111111111111 N
b1111111111111111 O
b10 <
b0 J
b0 L
b0 M
b111101000000000 @
b111101000000000 ]
1#
#620000
0#
#625000
b1111111111111111 E
b100 ;
1.
0+
b11 <
1#
#630000
0#
#635000
0U
b10 ;
13
1/
0.
b100 <
1#
#640000
0#
#645000
1U
b111101000000000 E
b10101010101011 H
b10101010101011 N
b10101010101011 O
1I
b11 ;
1.
1+
0/
03
b1 J
b1 L
b1 M
b10 <
1#
#650000
0#
#655000
b10101010101011 E
b100 ;
1.
0+
b11 <
1#
#660000
0#
#665000
0U
b10 ;
13
1/
0.
b100 <
1#
#670000
0#
#675000
1U
b111101000000000 E
b11 ;
1.
1+
0/
03
b100010001000 H
b100010001000 N
b100010001000 O
0I
b10 <
b10 J
b10 L
b10 M
1#
#680000
0#
#685000
b100010001000 E
b100 ;
1.
0+
b11 <
1#
#690000
0#
#695000
0U
b10 ;
13
1/
0.
b100 <
1#
#700000
0#
#705000
1U
b111101000000000 E
b101000111 H
b101000111 N
b101000111 O
1I
b11 ;
1.
1+
0/
03
14
b11 J
b11 L
b11 M
b10 <
1#
#710000
0#
#715000
b101000111 E
b100 ;
1.
0+
b11 <
1#
#720000
0#
#725000
0U
b101 ;
13
1/
0.
b100 <
1#
#730000
0#
#735000
b0 E
b0 H
b0 N
b0 O
1"
0/
03
0I
b101 <
04
b100 J
b100 L
b100 M
1#
#740000
0#
#745000
b0 <
b0 ;
0"
1#
b111000000000000000 (
0%
#750000
0#
#755000
1#
#760000
0#
#765000
1#
#770000
0#
#775000
1#
#780000
0#
#785000
1#
#790000
0#
#795000
1U
b1000011000000000 T
12
11
10
1-
b1 <
b10 ;
1#
1%
b1000011000000000 &
b1000011000000000 *
b1000011000000000 ?
b1000011000000000 Y
#800000
0#
#805000
b1000011000000000 E
b0 T
b1111111111111111 H
b1111111111111111 N
b1111111111111111 O
b11 ;
1.
1+
0-
00
01
02
b1000011000000000 @
b1000011000000000 ]
b0 J
b0 L
b0 M
b10 <
1#
#810000
0#
#815000
b1111111111111111 E
b100 ;
1.
0+
b11 <
1#
#820000
0#
#825000
0U
0.
b1 ;
b0 @
b0 ]
b0 <
1#
1$
#830000
0#
#835000
b0 ;
1#
0%
0$
#840000
0#
#845000
1#
#850000
0#
#855000
1#
#860000
0#
#865000
1#
#870000
0#
#875000
1#
#880000
0#
#885000
1U
b11001100110011 T
12
11
10
1-
b1 <
b10 ;
1#
1%
b11001100110011 &
b11001100110011 *
b11001100110011 ?
b11001100110011 Y
#890000
0#
#895000
b11001100110011 E
b0 T
b11 ;
1.
1+
0-
00
01
02
b10 <
b11001100110011 @
b11001100110011 ]
1#
#900000
0#
#905000
b1111111111111111 E
b100 ;
1.
0+
b11 <
1#
#910000
0#
#915000
0U
b10 ;
13
1/
0.
b100 <
1#
#920000
0#
#925000
1U
b11001100110011 E
b10101010101011 H
b10101010101011 N
b10101010101011 O
1I
b11 ;
1.
1+
0/
03
b1 J
b1 L
b1 M
b10 <
1#
#930000
0#
#935000
b10101010101011 E
b100 ;
1.
0+
b11 <
1#
#940000
0#
#945000
0U
b10 ;
13
1/
0.
b100 <
1#
#950000
0#
#955000
1U
b11001100110011 E
b11 ;
1.
1+
0/
03
b100010001000 H
b100010001000 N
b100010001000 O
0I
b10 <
b10 J
b10 L
b10 M
1#
#960000
0#
#965000
b100010001000 E
b100 ;
1.
0+
b11 <
1#
#970000
0#
#975000
0U
b10 ;
13
1/
0.
b100 <
1#
#980000
0#
#985000
1U
b11001100110011 E
b101000111 H
b101000111 N
b101000111 O
1I
b11 ;
1.
1+
0/
03
14
b11 J
b11 L
b11 M
b10 <
1#
#990000
0#
#995000
b101000111 E
b100 ;
1.
0+
b11 <
1#
#1000000
0#
#1005000
0U
b101 ;
13
1/
0.
b100 <
1#
#1010000
0#
#1015000
b0 E
b0 H
b0 N
b0 O
1"
0/
03
0I
b101 <
04
b100 J
b100 L
b100 M
1#
#1020000
0#
#1025000
1#
b100110000101101 &
b100110000101101 *
b100110000101101 ?
b100110000101101 Y
b11001011111100 (
