sin_approx_test.vcd
$date
	Wed Feb  5 11:37:03 2025
$end
$version
	Icarus Verilog
$end
$timescale
	1ps
$end
$scope module sin_approx_tb $end
$var wire 18 ! outSin [17:0] $end
$var wire 1 " done $end
$var reg 1 # clk $end
$var reg 16 $ inX [15:0] $end
$var reg 1 % rst $end
$var reg 1 & start $end
$scope function is_within $end
$var reg 18 ' actual [17:0] $end
$var reg 18 ( expected [17:0] $end
$var reg 18 ) margin [17:0] $end
$upscope $end
$scope module dut $end
$var wire 1 # clk $end
$var wire 16 * inX [15:0] $end
$var wire 1 % rst $end
$var wire 1 & start $end
$var wire 32 + mult1 [31:0] $end
$var parameter 2 , DONE $end
$var parameter 2 - IDLE $end
$var parameter 2 . INIT $end
$var parameter 2 / ITER $end
$var reg 16 0 coeff [15:0] $end
$var reg 1 " done $end
$var reg 2 1 iter [1:0] $end
$var reg 16 2 new_term [15:0] $end
$var reg 2 3 next_state [1:0] $end
$var reg 18 4 outSin [17:0] $end
$var reg 18 5 sin_reg [17:0] $end
$var reg 16 6 sqX [15:0] $end
$var reg 2 7 state [1:0] $end
$var reg 16 8 term [15:0] $end
$upscope $end
$upscope $end
$enddefinitions $end
$comment Show the parameter values. $end
$dumpall
b10 /
b1 .
b0 -
b11 ,
$end
#0
$dumpvars
b0 8
b0 7
b0 6
b0 5
b0 4
b0 3
bx 2
b0 1
bx 0
b0 +
b0 *
bx )
bx (
bx '
0&
1%
b0 $
0#
0"
b0 !
$end
#5000
1#
#10000
0#
#15000
1#
#20000
0#
0%
#25000
1#
#30000
b1 3
0#
1&
#35000
b10 3
b1 1
b1 7
1#
#40000
0#
#45000
b10 7
1#
#50000
0#
#55000
b10 1
bx 5
b10101010101011 0
1#
#60000
0#
#65000
b11 3
bx !
bx 4
b11 1
b0 2
b1000100010 0
1#
#70000
0#
#75000
1"
b1101 0
b11 7
1#
#80000
0#
#85000
b0 7
b0 3
1#
b0 (
b1100100 )
0&
#90000
0#
#95000
0"
1#
#100000
0#
#105000
1#
#110000
0#
#115000
1#
#120000
0#
#125000
1#
#130000
0#
#135000
b1 1
b100000000000000 5
b100000000000000 8
b1 7
b10 3
1#
1&
b10000000000000000000000000000 +
b100000000000000 $
b100000000000000 *
#140000
0#
#145000
b100000000000000 !
b100000000000000 4
b10 7
b1000000000000 6
1#
#150000
0#
#155000
b10 1
b10101010101011 0
b0 8
1#
#160000
0#
#165000
b11 3
b11 1
b1000100010 0
1#
#170000
0#
#175000
1"
b1101 0
b11 7
1#
#180000
0#
#185000
b0 7
b0 3
1#
b100000000000000 '
b111101011000100 (
0&
#190000
0#
#195000
0"
1#
#200000
0#
#205000
1#
#210000
0#
#215000
1#
#220000
0#
#225000
1#
#230000
0#
#235000
b1 1
b111111111111111 5
b111111111111111 8
b1 7
b10 3
1#
1&
b111111111111110000000000000001 +
b111111111111111 $
b111111111111111 *
#240000
0#
#245000
b111111111111111 !
b111111111111111 4
b10 7
b11111111111111 6
1#
#250000
0#
#255000
b10 1
b10101010101011 0
b0 8
1#
#260000
0#
#265000
b11 3
b11 1
b1000100010 0
1#
#270000
0#
#275000
1"
b1101 0
b11 7
1#
#280000
0#
#285000
b0 7
b0 3
1#
b111111111111111 '
b1101011101000001 (
0&
#290000
0#
#295000
0"
1#
#300000
0#
#305000
1#
#310000
0#
#315000
1#
#320000
0#
#325000
1#
#330000
0#
#335000
b1 1
b111100000000000000 5
b1100000000000000 8
b1 7
b10 3
1#
1&
b10000000000000000000000000000 +
b1100000000000000 $
b1100000000000000 *
#340000
0#
#345000
b111100000000000000 !
b111100000000000000 4
b10 7
b1000000000000 6
1#
#350000
0#
#355000
b10 1
b1111111111111111 2
b10101010101011 0
b0 8
1#
#360000
0#
#365000
b11 3
b11 1
b1011111111111111 5
b0 2
b1000100010 0
1#
#370000
0#
#375000
b1011111111111111 !
b1011111111111111 4
1"
b1101 0
b11 7
1#
#380000
0#
#385000
b0 7
b0 3
1#
b1011111111111111 '
b111000010100111100 (
0&
#390000
0#
#395000
0"
1#
#400000
0#
#405000
1#
#410000
0#
#415000
1#
#420000
0#
#425000
1#
#430000
0#
#435000
b1 1
b111000000000000001 5
b1000000000000001 8
b1 7
b10 3
1#
1&
b111111111111110000000000000001 +
b1000000000000001 $
b1000000000000001 *
#440000
0#
#445000
b111000000000000001 !
b111000000000000001 4
b10 7
b11111111111111 6
1#
#450000
0#
#455000
b10 1
b1111111111111111 2
b10101010101011 0
b1111111111111111 8
1#
#460000
0#
#465000
b11 3
b11 1
b1000000000000000 5
b1000100010 0
1#
#470000
0#
#475000
b1000000000000000 !
b1000000000000000 4
1"
b111000000000000001 5
b1101 0
b11 7
1#
#480000
0#
#485000
b111000000000000001 !
b111000000000000001 4
b0 7
b0 3
1#
b1000000000000000 '
b110010100010111111 (
0&
#490000
0#
#495000
0"
1#
#500000
0#
#505000
1#
#510000
0#
#515000
1#
#520000
0#
#525000
1#
#530000
0#
#535000
b1 1
b111111111111111 5
b111111111111111 8
b1 7
b10 3
1#
1&
b111111111111110000000000000001 +
b111111111111111 $
b111111111111111 *
#540000
0#
#545000
b111111111111111 !
b111111111111111 4
b10 7
1#
#550000
0#
#555000
b10 1
b111000000000000000 5
b0 2
b10101010101011 0
b0 8
1#
#560000
0#
#565000
b1 3
b0 1
b0 5
b0 !
b0 4
b0 7
b0 6
1#
1%
#570000
0#
#575000
b0 3
1#
0&
0%
#580000
0#
#585000
1#
#590000
0#
#595000
1#
#600000
0#
#605000
1#
#610000
0#
#615000
1#
#620000
0#
#625000
b1 1
b10000000000000 5
b10000000000000 8
b1 7
b10 3
1#
1&
b100000000000000000000000000 +
b10000000000000 $
b10000000000000 *
#630000
0#
#635000
b10000000000 6
b10000000000000 !
b10000000000000 4
b10 7
1#
#640000
0#
#645000
b10 1
b0 8
1#
#650000
0#
#655000
b11 3
b11 1
b1000100010 0
1#
#660000
0#
#665000
1"
b1101 0
b11 7
1#
#670000
0#
#675000
b0 7
b0 3
1#
b10000000000000 '
b11111101011000 (
0&
#680000
0#
#685000
0"
1#
#690000
0#
#695000
1#
#700000
0#
#705000
1#
#710000
0#
#715000
1#
#720000
0#
#725000
b1 1
b110000000000000 5
b110000000000000 8
b1 7
b10 3
1#
1&
b100100000000000000000000000000 +
b110000000000000 $
b110000000000000 *
#730000
0#
#735000
b10010000000000 6
b110000000000000 !
b110000000000000 4
b10 7
1#
#740000
0#
#745000
b10 1
b1111111111111111 2
b10101010101011 0
b0 8
1#
#750000
0#
#755000
b11 3
b11 1
b10101111111111111 5
b0 2
b1000100010 0
1#
#760000
0#
#765000
b10101111111111111 !
b10101111111111111 4
1"
b1101 0
b11 7
1#
#770000
0#
#775000
b0 7
b0 3
1#
b10101111111111111 '
b1010111001100000 (
0&
#780000
0#
#785000
0"
1#
